Intro to R
…
There are many ways to look at our data. We'll talk about a few.

---

## `faketucky`

If you type the name of your data frame (i.e. `faketucky`), R will output 

```r
faketucky
```

```
## # A tibble: 57,855 x 12
##    student_id first_high_scho… school_district  male race_ethnicity
##         <dbl> <chr>            <chr>           <dbl> <chr>         
##  1       1622 Jackson          Jackson             1 Multiple/Nati…
##  2       1877 Jackson          Jackson             1 White         
##  3       1941 Jackson          Jackson             1 White         
##  4       3442 Jackson          Jackson             0 White         
##  5       4623 Jackson          Jackson             1 White         
##  6       4913 Jackson          Jackson             1 White         
##  7       5754 Jackson          Jackson             1 White         
##  8       6293 Jackson          Jackson             0 White         
##  9       7010 Jackson          Jackson             1 White         
## 10       8343 Jackson          Jackson             1 White         
## # … with 57,845 more rows, and 7 more variables:
## #   free_and_reduced_lunch <dbl>, percent_absent <dbl>, gpa <dbl>,
## #   act_reading_score <dbl>, act_math_score <dbl>,
## #   received_high_school_diploma <dbl>, enrolled_in_college <dbl>
```
…
